{   
    "1001": {    "lawName": "ELA-RF",
    "lawDescription": "",
    "lawType": 1001,
    "nVariable": 3,
    "iVARIN": [2, 3, 4 ], 
    "iPARAM": [4, 2, 3 ],
    "variableName": [
        "RHO",
        "E",
        "ANU"
    ],
    "variableDescription": [
        "SPECIFIC MASS",
        "YOUNG'S MODULUS",
        "POISSON'S RATIO"
    ]
    },
    "1002": {    "lawName": "ELA-RF",
    "lawDescription": "",
    "lawType": 1001,
    "nVariable": 3,
    "iVARIN": [2, 3, 4 ], 
    "iPARAM": [4, 2, 3 ],
    "variableName": [
        "RHO",
        "E",
        "ANU"
    ],
    "variableDescription": [
        "SPECIFIC MASS",
        "YOUNG'S MODULUS",
        "POISSON'S RATIO"
    ]
    },
    "1003": {    "lawName": "ELA-RF",
    "lawDescription": "",
    "lawType": 1001,
    "nVariable": 3,
    "iVARIN": [2, 3, 4 ], 
    "iPARAM": [4, 2, 3 ],
    "variableName": [
        "RHO",
        "E",
        "ANU"
    ],
    "variableDescription": [
        "SPECIFIC MASS",
        "YOUNG'S MODULUS",
        "POISSON'S RATIO"
    ]
    },
    "1004": {    "lawName": "ELA-RF",
    "lawDescription": "",
    "lawType": 1001,
    "nVariable": 3,
    "iVARIN": [2, 3, 4 ], 
    "iPARAM": [4, 2, 3 ],
    "variableName": [
        "RHO",
        "E",
        "ANU"
    ],
    "variableDescription": [
        "SPECIFIC MASS",
        "YOUNG'S MODULUS",
        "POISSON'S RATIO"
    ]
    },
    "1010": {    "lawName": "PLASOL-RF",
    "lawDescription": "",
    "lawType": 1072,
    "nVariable": 37,
    "iVARIN": [2, 44, 45, 46, 47, 48, 49, 50, 51, 52, 53, 54, 55, 56, 57, 58, 59, 60, 61, 62, 63, 64, 65, 66, 67, 68, 69, 70, 71, 72, 73, 74, 75, 76, 77, 78, 79 ],
    "iPARAM": [18, 2,  3,  4,  5,  6,  7,  8,  9, 10, 11, 12, 13, 14, 15, 16, 17, 19, 20, 21, 22, 23, 24, 25, 26, 27, 28, 29, 30, 31, 32, 33, 34, 35, 36, 37, 38 ],
    "variableName": [
        "RHO",
        "E",
        "ANU",
        "PSIC",
        "DIV",
        "COH0",
        "COHF",
        "PHIC0",
        "PHICF",
        "BCOH",
        "BPHI",
        "PHIE0",
        "PHIEF",
        "AN",
        "PSIE",
        "PHMPS",
        "BIOPT",
        "AK1",
        "AK2",
        "DECPHI",
        "DECCOH",
        "PSICM",
        "PSIEM",
        "PSICPEAK",
        "PSICLIM",
        "RATPSI",
        "BPSI",
        "PSIEPEAK",
        "PSIELIM",
        "DECPSI",
        "AE",
        "P",
        "YD0",
        "alphath",
        "Pa",
        "Pb",
        "Eth"
    ],
    "variableDescription": [
        "SPECIFIC MASS",
        "YOUNG'S MODULUS",
        "POISSON'S RATIO"       
    ]
    },
    "1591": {    "lawName": "MOHR-RF",
    "lawDescription": "Mohr-Coulomb constitutive law",
    "lawType": [1591],
    "nVariable": 15,
    "iVARIN": [2,33,34,35,36,37,38,39,40,41,42,43,44,45,46],
    "iPARAM": [14,2,3,4,5,6,7,8,9,10,11,12,13,15,16],
    "variableName": [
         "RHO",
         "E",
         "ANU",
         "PSI",
         "DIV",
         "COH0",
         "COHF",
         "PHI0",
         "PHIF",
         "BCOH",
         "BPHI",
         "PHMPS",
         "BIOPT",
         "AK1",
         "AK2"
    ],
    "variableDescription": [
        "SPECIFIC MASS",
        "YOUNG'S MODULUS",
        "POISSON'S RATIO",
        "DILATANCY",
        "",
        "",
        "",
        "",
        "",
        "",
        "",
        "",
        "",
        "",
        "",
        ""
    ]
    },
    "1171": {    "lawName": "WAVAT-RF",
    "lawDescription": "",
    "lawType": 1171,
    "nVariable": 1,
    "iVARIN": [3], 
    "iPARAM": [8],
    "variableName": [
        "POROS"
    ],
    "variableDescription": [
        "POROSITY"
    ]
    },
    "1174": {    "lawName": "WAVAT-RF",
    "lawDescription": "",
    "lawType": 1174,
    "nVariable": 1,
    "iVARIN": [3], 
    "iPARAM": [8],
    "variableName": [
        "POROS"
    ],
    "variableDescription": [
        "POROSITY"
    ]
}
}